<svg width="25" height="25" viewBox="0 0 25 25" fill="none" xmlns="http://www.w3.org/2000/svg">
<rect width="12.5" height="4.24929" rx="2.12465" fill="#FFFFFF"/>
<rect width="12.4378" height="4.2707" rx="2.13535" transform="matrix(1 0 0.00840505 0.999965 6.3501 10.2266)" fill="#FFFFFF"/>
<rect x="12.5" y="20.7507" width="12.5" height="4.24929" rx="2.12465" fill="#FFFFFF"/>
</svg>
